{
	"ResourceName":{
		"supplies":"Supplies",
		"volatiles":"Volatiles",
		"ore":"ore",
		"rare_ore":"Transplutonic ore",
		"metals":"Metals",
		"rare_metals":"Transplutonics",
		"heavy_machinery":"Heavy machinery",
	},
	"AbilityName":{
		"Durability":"Durability",
		"WeaponProficiency":"Weaponry",
		"Logistics":"Logistics",
		"Flexibility":"Mobility",
		"Technology":"Technology",
	},
	"Options":{
		"leave":"Leave",
		"back":"Back",
		"confirm":"Confirm",
		"cancel":"Cancel",
		"previouspage":"Previous Page",
		"nextpage":"Next Page",
	},
	"QualityName":{
		"inferior":"(inferior)",
		"rough":"(rough)",
		"crude":"(crude)",
		"normal":"(normal)",
		"good":"(good)",
		"superior":"(superior)",
		"perfect":"(perfect)",
		"s_perfect":"(ultimate)",
	}
}